%YAML 1.1
%TAG !u! tag:unity3d.com,2011:
--- !u!114 &11400000
MonoBehaviour:
  m_ObjectHideFlags: 0
  m_CorrespondingSourceObject: {fileID: 0}
  m_PrefabInstance: {fileID: 0}
  m_PrefabAsset: {fileID: 0}
  m_GameObject: {fileID: 0}
  m_Enabled: 1
  m_EditorHideFlags: 0
  m_Script: {fileID: 11500000, guid: af1c89896f5f7f6439ef1a93a23a0f3d, type: 3}
  m_Name: gravelSurface
  m_EditorClassIdentifier: 
  audioSource: {fileID: 8206458, guid: dfea19d1d34dd174d87195f78cb44ae7, type: 3}
  audioMixerGroup: {fileID: 24300002, guid: a63f18b704a1b874a8dad30baf0939e6, type: 2}
  TextureOrMaterialNames: []
  audioClips: []
  particleObject: {fileID: 0}
  useStepMark: 0
  stepMark: {fileID: 0}
  stepLayer:
    serializedVersion: 2
    m_Bits: 0
  timeToDestroy: 5
